авг 13, 2013 11:35:13 PM org.apache.solr.core.SolrResourceLoader locateSolrHome
INFO: JNDI not configured for solr (NoInitialContextEx)
авг 13, 2013 11:35:14 PM org.apache.solr.core.SolrResourceLoader locateSolrHome
INFO: using system property solr.solr.home: /home/halex/apps/rb-samara-market.com/solr
авг 13, 2013 11:35:14 PM org.apache.solr.core.SolrResourceLoader <init>
INFO: Solr home set to '/home/halex/apps/rb-samara-market.com/solr/'
авг 13, 2013 11:35:14 PM org.apache.solr.servlet.SolrDispatchFilter init
INFO: SolrDispatchFilter.init()
авг 13, 2013 11:35:14 PM org.apache.solr.core.SolrResourceLoader locateSolrHome
INFO: JNDI not configured for solr (NoInitialContextEx)
авг 13, 2013 11:35:14 PM org.apache.solr.core.SolrResourceLoader locateSolrHome
INFO: using system property solr.solr.home: /home/halex/apps/rb-samara-market.com/solr
авг 13, 2013 11:35:14 PM org.apache.solr.core.CoreContainer$Initializer initialize
INFO: looking for solr.xml: /home/halex/apps/rb-samara-market.com/solr/solr.xml
авг 13, 2013 11:35:14 PM org.apache.solr.core.SolrResourceLoader locateSolrHome
INFO: JNDI not configured for solr (NoInitialContextEx)
авг 13, 2013 11:35:14 PM org.apache.solr.core.SolrResourceLoader locateSolrHome
INFO: using system property solr.solr.home: /home/halex/apps/rb-samara-market.com/solr
авг 13, 2013 11:35:14 PM org.apache.solr.core.CoreContainer <init>
INFO: New CoreContainer: solrHome=/home/halex/apps/rb-samara-market.com/solr/ instance=9717983
авг 13, 2013 11:35:14 PM org.apache.solr.core.SolrResourceLoader <init>
INFO: Solr home set to '/home/halex/apps/rb-samara-market.com/solr/'
авг 13, 2013 11:35:14 PM org.apache.solr.core.SolrResourceLoader <init>
INFO: Solr home set to '/home/halex/apps/rb-samara-market.com/solr/./'
авг 13, 2013 11:35:14 PM org.apache.solr.core.SolrConfig initLibs
INFO: Adding specified lib dirs to ClassLoader
авг 13, 2013 11:35:14 PM org.apache.solr.core.Config getLuceneVersion
WARNING: the luceneMatchVersion is not specified, defaulting to LUCENE_24 emulation. You should at some point declare and reindex to at least 3.0, because 2.4 emulation is deprecated and will be removed in 4.0. This parameter will be mandatory in 4.0.
авг 13, 2013 11:35:14 PM org.apache.solr.core.SolrConfig <init>
INFO: Using Lucene MatchVersion: LUCENE_24
авг 13, 2013 11:35:14 PM org.apache.solr.core.SolrConfig <init>
WARNING: Deprecated syntax found. <highlighting/> should move to <searchComponent/>
авг 13, 2013 11:35:14 PM org.apache.solr.core.SolrConfig <init>
INFO: Loaded SolrConfig: solrconfig.xml
авг 13, 2013 11:35:14 PM org.apache.solr.schema.IndexSchema readSchema
INFO: Reading Solr Schema
авг 13, 2013 11:35:14 PM org.apache.solr.schema.IndexSchema readSchema
INFO: Schema name=sunspot
авг 13, 2013 11:35:14 PM org.apache.solr.util.plugin.AbstractPluginLoader load
INFO: created string: org.apache.solr.schema.StrField
авг 13, 2013 11:35:14 PM org.apache.solr.util.plugin.AbstractPluginLoader load
INFO: created tdouble: org.apache.solr.schema.TrieDoubleField
авг 13, 2013 11:35:14 PM org.apache.solr.util.plugin.AbstractPluginLoader load
INFO: created rand: org.apache.solr.schema.RandomSortField
авг 13, 2013 11:35:14 PM org.apache.solr.util.plugin.AbstractPluginLoader load
INFO: created : org.apache.solr.analysis.StandardTokenizerFactory
авг 13, 2013 11:35:14 PM org.apache.solr.analysis.BaseTokenStreamFactory assureMatchVersion
WARNING: StandardTokenizerFactory is using deprecated LUCENE_24 emulation. You should at some point declare and reindex to at least 3.0, because 2.x emulation is deprecated and will be removed in 4.0
авг 13, 2013 11:35:14 PM org.apache.solr.util.plugin.AbstractPluginLoader load
INFO: created : org.apache.solr.analysis.StandardFilterFactory
авг 13, 2013 11:35:14 PM org.apache.solr.analysis.BaseTokenStreamFactory assureMatchVersion
WARNING: StandardFilterFactory is using deprecated LUCENE_24 emulation. You should at some point declare and reindex to at least 3.0, because 2.x emulation is deprecated and will be removed in 4.0
авг 13, 2013 11:35:14 PM org.apache.solr.util.plugin.AbstractPluginLoader load
INFO: created : org.apache.solr.analysis.LowerCaseFilterFactory
авг 13, 2013 11:35:14 PM org.apache.solr.analysis.BaseTokenStreamFactory assureMatchVersion
WARNING: LowerCaseFilterFactory is using deprecated LUCENE_24 emulation. You should at some point declare and reindex to at least 3.0, because 2.x emulation is deprecated and will be removed in 4.0
авг 13, 2013 11:35:14 PM org.apache.solr.util.plugin.AbstractPluginLoader load
INFO: created : org.apache.solr.analysis.PorterStemFilterFactory
авг 13, 2013 11:35:14 PM org.apache.solr.util.plugin.AbstractPluginLoader load
INFO: created text: org.apache.solr.schema.TextField
авг 13, 2013 11:35:14 PM org.apache.solr.util.plugin.AbstractPluginLoader load
INFO: created boolean: org.apache.solr.schema.BoolField
авг 13, 2013 11:35:14 PM org.apache.solr.util.plugin.AbstractPluginLoader load
INFO: created date: org.apache.solr.schema.DateField
авг 13, 2013 11:35:14 PM org.apache.solr.util.plugin.AbstractPluginLoader load
INFO: created sdouble: org.apache.solr.schema.SortableDoubleField
авг 13, 2013 11:35:14 PM org.apache.solr.util.plugin.AbstractPluginLoader load
INFO: created sfloat: org.apache.solr.schema.SortableFloatField
авг 13, 2013 11:35:14 PM org.apache.solr.util.plugin.AbstractPluginLoader load
INFO: created sint: org.apache.solr.schema.SortableIntField
авг 13, 2013 11:35:14 PM org.apache.solr.util.plugin.AbstractPluginLoader load
INFO: created slong: org.apache.solr.schema.SortableLongField
авг 13, 2013 11:35:14 PM org.apache.solr.util.plugin.AbstractPluginLoader load
INFO: created tint: org.apache.solr.schema.TrieIntField
авг 13, 2013 11:35:14 PM org.apache.solr.util.plugin.AbstractPluginLoader load
INFO: created tfloat: org.apache.solr.schema.TrieFloatField
авг 13, 2013 11:35:14 PM org.apache.solr.util.plugin.AbstractPluginLoader load
INFO: created tdate: org.apache.solr.schema.TrieDateField
авг 13, 2013 11:35:14 PM org.apache.solr.util.plugin.AbstractPluginLoader load
INFO: created location: org.apache.solr.schema.LatLonType
авг 13, 2013 11:35:15 PM org.apache.solr.schema.IndexSchema readSchema
INFO: default search field is text
авг 13, 2013 11:35:15 PM org.apache.solr.schema.IndexSchema readSchema
INFO: query parser default operator is AND
авг 13, 2013 11:35:15 PM org.apache.solr.schema.IndexSchema readSchema
INFO: unique key field: id
авг 13, 2013 11:35:15 PM org.apache.solr.core.SolrCore <init>
INFO: [] Opening new SolrCore at /home/halex/apps/rb-samara-market.com/solr/./, dataDir=/home/halex/apps/rb-samara-market.com/solr/data/development/
авг 13, 2013 11:35:15 PM org.apache.solr.core.JmxMonitoredMap <init>
INFO: No JMX servers found, not exposing Solr information with JMX.
авг 13, 2013 11:35:15 PM org.apache.solr.core.SolrCore initListeners
INFO: [] Added SolrEventListener for newSearcher: org.apache.solr.core.QuerySenderListener{queries=[]}
авг 13, 2013 11:35:15 PM org.apache.solr.core.SolrCore initListeners
INFO: [] Added SolrEventListener for firstSearcher: org.apache.solr.core.QuerySenderListener{queries=[{q=solr rocks,start=0,rows=10}, {q=static firstSearcher warming query from solrconfig.xml}]}
авг 13, 2013 11:35:15 PM org.apache.solr.request.XSLTResponseWriter <init>
WARNING: org.apache.solr.request.XSLTResponseWriter is deprecated. Please use the corresponding class in org.apache.solr.response
авг 13, 2013 11:35:15 PM org.apache.solr.response.XSLTResponseWriter init
INFO: xsltCacheLifetimeSeconds=5
авг 13, 2013 11:35:15 PM org.apache.solr.core.RequestHandlers initHandlersFromConfig
INFO: created standard: solr.SearchHandler
авг 13, 2013 11:35:15 PM org.apache.solr.core.RequestHandlers initHandlersFromConfig
INFO: created dismax: solr.SearchHandler
авг 13, 2013 11:35:15 PM org.apache.solr.core.RequestHandlers initHandlersFromConfig
INFO: created partitioned: solr.SearchHandler
авг 13, 2013 11:35:15 PM org.apache.solr.core.RequestHandlers initHandlersFromConfig
INFO: created /spell: solr.SearchHandler
авг 13, 2013 11:35:15 PM org.apache.solr.core.RequestHandlers initHandlersFromConfig
INFO: created tvrh: org.apache.solr.handler.component.SearchHandler
авг 13, 2013 11:35:15 PM org.apache.solr.core.RequestHandlers initHandlersFromConfig
INFO: adding lazy requestHandler: org.apache.solr.handler.extraction.ExtractingRequestHandler
авг 13, 2013 11:35:15 PM org.apache.solr.core.RequestHandlers initHandlersFromConfig
INFO: created /update/extract: org.apache.solr.handler.extraction.ExtractingRequestHandler
авг 13, 2013 11:35:15 PM org.apache.solr.core.RequestHandlers initHandlersFromConfig
INFO: created /terms: org.apache.solr.handler.component.SearchHandler
авг 13, 2013 11:35:15 PM org.apache.solr.core.RequestHandlers initHandlersFromConfig
INFO: adding lazy requestHandler: solr.SearchHandler
авг 13, 2013 11:35:15 PM org.apache.solr.core.RequestHandlers initHandlersFromConfig
INFO: created /elevate: solr.SearchHandler
авг 13, 2013 11:35:15 PM org.apache.solr.core.RequestHandlers initHandlersFromConfig
INFO: created /update: solr.XmlUpdateRequestHandler
авг 13, 2013 11:35:15 PM org.apache.solr.core.RequestHandlers initHandlersFromConfig
INFO: created /update/javabin: solr.BinaryUpdateRequestHandler
авг 13, 2013 11:35:15 PM org.apache.solr.core.RequestHandlers initHandlersFromConfig
INFO: created /analysis/document: solr.DocumentAnalysisRequestHandler
авг 13, 2013 11:35:15 PM org.apache.solr.core.RequestHandlers initHandlersFromConfig
INFO: created /analysis/field: solr.FieldAnalysisRequestHandler
авг 13, 2013 11:35:15 PM org.apache.solr.core.RequestHandlers initHandlersFromConfig
INFO: adding lazy requestHandler: solr.CSVRequestHandler
авг 13, 2013 11:35:15 PM org.apache.solr.core.RequestHandlers initHandlersFromConfig
INFO: created /update/csv: solr.CSVRequestHandler
авг 13, 2013 11:35:15 PM org.apache.solr.core.RequestHandlers initHandlersFromConfig
INFO: created /admin/: org.apache.solr.handler.admin.AdminHandlers
авг 13, 2013 11:35:15 PM org.apache.solr.core.RequestHandlers initHandlersFromConfig
INFO: created /admin/ping: PingRequestHandler
авг 13, 2013 11:35:15 PM org.apache.solr.core.RequestHandlers initHandlersFromConfig
INFO: created /debug/dump: solr.DumpRequestHandler
авг 13, 2013 11:35:15 PM org.apache.solr.core.RequestHandlers initHandlersFromConfig
INFO: created /mlt: solr.MoreLikeThisHandler
авг 13, 2013 11:35:15 PM org.apache.solr.search.SolrIndexSearcher <init>
INFO: Opening Searcher@85b156 main
авг 13, 2013 11:35:15 PM org.apache.solr.update.CommitTracker <init>
INFO: commitTracker AutoCommit: disabled
авг 13, 2013 11:35:15 PM org.apache.solr.handler.component.SpellCheckComponent inform
INFO: Initializing spell checkers
авг 13, 2013 11:35:15 PM org.apache.solr.handler.component.SpellCheckComponent inform
WARNING: No queryConverter defined, using default converter
авг 13, 2013 11:35:15 PM org.apache.solr.handler.component.QueryElevationComponent inform
INFO: Loading QueryElevation from: /home/halex/apps/rb-samara-market.com/solr/./conf/elevate.xml
авг 13, 2013 11:35:15 PM org.apache.solr.handler.component.SearchHandler inform
INFO: Adding  component:org.apache.solr.handler.component.QueryComponent@15ff9d0
авг 13, 2013 11:35:15 PM org.apache.solr.handler.component.SearchHandler inform
INFO: Adding  component:org.apache.solr.handler.component.FacetComponent@a0804
авг 13, 2013 11:35:15 PM org.apache.solr.handler.component.SearchHandler inform
INFO: Adding  component:org.apache.solr.handler.component.MoreLikeThisComponent@947b27
авг 13, 2013 11:35:15 PM org.apache.solr.handler.component.SearchHandler inform
INFO: Adding  component:org.apache.solr.handler.component.HighlightComponent@2143e4
авг 13, 2013 11:35:15 PM org.apache.solr.handler.component.SearchHandler inform
INFO: Adding  component:org.apache.solr.handler.component.StatsComponent@1f06324
авг 13, 2013 11:35:15 PM org.apache.solr.handler.component.SearchHandler inform
INFO: Adding  debug component:org.apache.solr.handler.component.DebugComponent@fd01b1
авг 13, 2013 11:35:15 PM org.apache.solr.handler.component.SearchHandler inform
INFO: Adding  component:org.apache.solr.handler.component.QueryComponent@15ff9d0
авг 13, 2013 11:35:15 PM org.apache.solr.handler.component.SearchHandler inform
INFO: Adding  component:org.apache.solr.handler.component.FacetComponent@a0804
авг 13, 2013 11:35:15 PM org.apache.solr.handler.component.SearchHandler inform
INFO: Adding  component:org.apache.solr.handler.component.MoreLikeThisComponent@947b27
авг 13, 2013 11:35:15 PM org.apache.solr.handler.component.SearchHandler inform
INFO: Adding  component:org.apache.solr.handler.component.HighlightComponent@2143e4
авг 13, 2013 11:35:15 PM org.apache.solr.handler.component.SearchHandler inform
INFO: Adding  component:org.apache.solr.handler.component.StatsComponent@1f06324
авг 13, 2013 11:35:15 PM org.apache.solr.handler.component.SearchHandler inform
INFO: Adding  debug component:org.apache.solr.handler.component.DebugComponent@fd01b1
авг 13, 2013 11:35:15 PM org.apache.solr.handler.component.SearchHandler inform
INFO: Adding  component:org.apache.solr.handler.component.QueryComponent@15ff9d0
авг 13, 2013 11:35:15 PM org.apache.solr.handler.component.SearchHandler inform
INFO: Adding  component:org.apache.solr.handler.component.FacetComponent@a0804
авг 13, 2013 11:35:15 PM org.apache.solr.handler.component.SearchHandler inform
INFO: Adding  component:org.apache.solr.handler.component.MoreLikeThisComponent@947b27
авг 13, 2013 11:35:15 PM org.apache.solr.handler.component.SearchHandler inform
INFO: Adding  component:org.apache.solr.handler.component.HighlightComponent@2143e4
авг 13, 2013 11:35:15 PM org.apache.solr.handler.component.SearchHandler inform
INFO: Adding  component:org.apache.solr.handler.component.StatsComponent@1f06324
авг 13, 2013 11:35:15 PM org.apache.solr.handler.component.SearchHandler inform
INFO: Adding  debug component:org.apache.solr.handler.component.DebugComponent@fd01b1
авг 13, 2013 11:35:15 PM org.apache.solr.handler.component.SearchHandler inform
INFO: Adding  component:org.apache.solr.handler.component.QueryComponent@15ff9d0
авг 13, 2013 11:35:15 PM org.apache.solr.handler.component.SearchHandler inform
INFO: Adding  component:org.apache.solr.handler.component.FacetComponent@a0804
авг 13, 2013 11:35:15 PM org.apache.solr.handler.component.SearchHandler inform
INFO: Adding  component:org.apache.solr.handler.component.MoreLikeThisComponent@947b27
авг 13, 2013 11:35:15 PM org.apache.solr.handler.component.SearchHandler inform
INFO: Adding  component:org.apache.solr.handler.component.HighlightComponent@2143e4
авг 13, 2013 11:35:15 PM org.apache.solr.handler.component.SearchHandler inform
INFO: Adding  component:org.apache.solr.handler.component.StatsComponent@1f06324
авг 13, 2013 11:35:15 PM org.apache.solr.handler.component.SearchHandler inform
INFO: Adding  component:org.apache.solr.handler.component.SpellCheckComponent@7a1b5b
авг 13, 2013 11:35:15 PM org.apache.solr.handler.component.SearchHandler inform
INFO: Adding  debug component:org.apache.solr.handler.component.DebugComponent@fd01b1
авг 13, 2013 11:35:15 PM org.apache.solr.handler.component.SearchHandler inform
INFO: Adding  component:org.apache.solr.handler.component.QueryComponent@15ff9d0
авг 13, 2013 11:35:15 PM org.apache.solr.handler.component.SearchHandler inform
INFO: Adding  component:org.apache.solr.handler.component.FacetComponent@a0804
авг 13, 2013 11:35:15 PM org.apache.solr.handler.component.SearchHandler inform
INFO: Adding  component:org.apache.solr.handler.component.MoreLikeThisComponent@947b27
авг 13, 2013 11:35:15 PM org.apache.solr.handler.component.SearchHandler inform
INFO: Adding  component:org.apache.solr.handler.component.HighlightComponent@2143e4
авг 13, 2013 11:35:15 PM org.apache.solr.handler.component.SearchHandler inform
INFO: Adding  component:org.apache.solr.handler.component.StatsComponent@1f06324
авг 13, 2013 11:35:15 PM org.apache.solr.handler.component.SearchHandler inform
INFO: Adding  component:org.apache.solr.handler.component.TermVectorComponent@9a2f1a
авг 13, 2013 11:35:15 PM org.apache.solr.handler.component.SearchHandler inform
INFO: Adding  debug component:org.apache.solr.handler.component.DebugComponent@fd01b1
авг 13, 2013 11:35:15 PM org.apache.solr.handler.component.SearchHandler inform
INFO: Adding  component:org.apache.solr.handler.component.TermsComponent@8a93de
авг 13, 2013 11:35:15 PM org.apache.solr.core.QuerySenderListener newSearcher
INFO: QuerySenderListener sending requests to Searcher@85b156 main
авг 13, 2013 11:35:15 PM org.apache.solr.core.CoreContainer register
INFO: registering core: 
авг 13, 2013 11:35:15 PM org.apache.solr.servlet.SolrDispatchFilter init
INFO: user.dir=/home/halex/.rvm/gems/ruby-1.9.3-p448/gems/sunspot_solr-2.0.0/solr
авг 13, 2013 11:35:15 PM org.apache.solr.servlet.SolrDispatchFilter init
INFO: SolrDispatchFilter.init() done
авг 13, 2013 11:35:15 PM org.apache.solr.core.SolrCore execute
INFO: [] webapp=null path=null params={start=0&event=firstSearcher&q=solr+rocks&rows=10} hits=0 status=0 QTime=101 
авг 13, 2013 11:35:15 PM org.apache.solr.core.SolrCore execute
INFO: [] webapp=null path=null params={event=firstSearcher&q=static+firstSearcher+warming+query+from+solrconfig.xml} hits=0 status=0 QTime=0 
авг 13, 2013 11:35:15 PM org.apache.solr.core.QuerySenderListener newSearcher
INFO: QuerySenderListener done.
авг 13, 2013 11:35:15 PM org.apache.solr.handler.component.SpellCheckComponent$SpellCheckerListener newSearcher
INFO: Loading spell index for spellchecker: default
авг 13, 2013 11:35:15 PM org.apache.solr.core.SolrCore registerSearcher
INFO: [] Registered new searcher Searcher@85b156 main
авг 13, 2013 11:35:15 PM org.apache.solr.servlet.SolrServlet init
INFO: SolrServlet.init()
авг 13, 2013 11:35:15 PM org.apache.solr.core.SolrResourceLoader locateSolrHome
INFO: JNDI not configured for solr (NoInitialContextEx)
авг 13, 2013 11:35:15 PM org.apache.solr.core.SolrResourceLoader locateSolrHome
INFO: using system property solr.solr.home: /home/halex/apps/rb-samara-market.com/solr
авг 13, 2013 11:35:15 PM org.apache.solr.servlet.SolrServlet init
INFO: SolrServlet.init() done
авг 13, 2013 11:35:15 PM org.apache.solr.core.SolrResourceLoader locateSolrHome
INFO: JNDI not configured for solr (NoInitialContextEx)
авг 13, 2013 11:35:15 PM org.apache.solr.core.SolrResourceLoader locateSolrHome
INFO: using system property solr.solr.home: /home/halex/apps/rb-samara-market.com/solr
авг 13, 2013 11:35:15 PM org.apache.solr.servlet.SolrUpdateServlet init
INFO: SolrUpdateServlet.init() done
